[
  {
    "key": "ctrl+shift+down",
    "command": "editor.action.moveLinesDownAction",
    "when": "editorTextFocus && !editorReadonly"
  },
  {
    "key": "ctrl+shift+up",
    "command": "editor.action.moveLinesUpAction",
    "when": "editorTextFocus && !editorReadonly"
  },
  {
    "key": "alt+up",
    "command": "cursorUpSelect",
    "when": "editorTextFocus"
  },
  {
    "key": "alt+down",
    "command": "cursorDownSelect",
    "when": "editorTextFocus"
  },
  {
    "key": "ctrl+shift+l",
    "command": "editor.action.insertCursorAtEndOfEachLineSelected",
    "when": "editorTextFocus"
  },
  {
    "key": "shift+alt+i",
    "command": "editor.action.selectHighlights",
    "when": "editorFocus"
  },
  {
    "key": "ctrl+0",
    "command": "workbench.action.terminal.focus"
  }
]